/// Scalable lateral movements techniques - Name technique, (regex) properly finding commandline execution, * (regex) finding input token, * (regex) succesful check, * (regex) host check, colour for lateral movement visual /// * == if exists, else value 'None'
SharpWMI.exe,execute-assembly (.*)SharpWMI.exe (.*)action=exec,username=(\S*\S),\[\*\] Process ID,computername=(\S*\S),rgb(255, 175, 3),
psexec64,jump psexec64 (.*),None,Started service (.*) on (.*),jump psexec64 (\S*\S),rgb(189, 11, 11),
psexec_psh,jump psexec_psh (.*),None,Started service (.*) on (.*),jump psexec_psh (\S*\S),rgb(189, 11, 11),
psexec,jump psexec (.*),None,Started service (.*) on (.*),jump psexec (\S*\S),rgb(189, 11, 11),
winrm,jump winrm (.*),None,Started service (.*) on (.*),jump winrn (\S*\S),rgb(189, 11, 11),
winrn64,jump winrn64 (.*),None,Started service (.*) on (.*),jump winrn64 (\S*\S),rgb(189, 11, 11),
psexec,remote-exec psexec (.*),None,Started service (.*) on (.*),remote-exec psexec (\S*\S),rgb(189, 11, 11),